{
  "vehiclemake": [
    {
      "id": 1,
      "name": "2 Series",
      "abrv": "BMW"
    },
    {
      "id": 2,
      "name": "CT5",
      "abrv": "CADI"
    },
    {
      "id": 3,
      "name": "Corvette",
      "abrv": "CHEV"
    }
  ],
  "vehiclemodel": [
    {
      "id": 1,
      "makeid": "1",
      "name": "2 Series",
      "abrv": "BMW"
    },
    {
      "id": 2,
      "makeid": "2",
      "name": "CT5",
      "abrv": "CADI"
    },
    {
      "id": 3,
      "makeid": "3",
      "name": "Corvette",
      "abrv": "CHEV"
    },
    {
      "id": 4,
      "makeid": "4",
      "name": "Accent",
      "abrv": "HYUN"
    },
    {
      "id": 6,
      "makeid": "9",
      "name": "Siena",
      "abrv": "TOYT"
    },
    {
      "id": 7,
      "makeid": "6",
      "name": "RC",
      "abrv": "LEXS"
    },
    {
      "id": 8,
      "makeid": "7",
      "name": "Altima",
      "abrv": "NISS"
    },
    {
      "id": 9,
      "makeid": "7",
      "name": "Maxima",
      "abrv": "NISS"
    },
    {
      "id": 10,
      "makeid": "1",
      "name": "4 Series",
      "abrv": "BMW"
    },
    {
      "id": 11,
      "makeid": "5",
      "name": "K5",
      "abrv": "KIA"
    },
    {
      "id": 12,
      "makeid": "7",
      "name": "Sentra",
      "abrv": "NISS"
    },
    {
      "id": 13,
      "makeid": "8",
      "name": "CLA",
      "abrv": "MERZ"
    },
    {
      "makeid": "123",
      "name": "test",
      "abrv": "Nissan",
      "id": 14
    }
  ]
}